Deploying your App - Using Functions to Streamline Your Code - Shiny Modules
…
"You know how this is:"

becomes tokens like "you", "know", "how", "this", "is".

If you want to keep case, use:

text_df |>
  unnest_tokens(
    output = word,
    input  = text,
    to_lower = FALSE
  )

# A tibble: 80 × 2
    line word  
   <int> <chr> 
 1     1 If    
 2     1 You   
 3     1 Forget
 4     1 Me    
 5     2 by    
 6     2 Pablo 
 7     2 Neruda
 8     3 I     
 9     3 want  
10     3 you   
# ℹ 70 more rows
…
A consistent format across books

Metadata (book titles)

This makes it perfect for learning text mining without worrying about messy raw data.

Load the data

library(janeaustenr)

The function:

austen_books()

# A tibble: 73,422 × 2
   text                    book               
 * <chr>                   <fct>              
 1 "SENSE AND SENSIBILITY" Sense & Sensibility
 2 ""                      Sense & Sensibility
 3 "by Jane Austen"        Sense & Sensibility
 4 ""                      Sense & Sensibility
 5 "(1811)"                Sense & Sensibility
 6 ""                      Sense & Sensibility
 7 ""                      Sense & Sensibility
 8 ""                      Sense & Sensibility
 9 ""                      Sense & Sensibility
10 "CHAPTER 1"             Sense & Sensibility
# ℹ 73,412 more rows
…
[1] 13464

Result:

13,464 unique words

This is your vocabulary.

Count word frequencies

tidy_books |>
  count(word, sort = TRUE)

# A tibble: 13,464 × 2
   word       n
   <chr>  <int>
 1 miss    1860
 2 time    1339
 3 fanny    862
 4 dear     822
 5 lady     819
 6 sir      807
 7 day      797
 8 emma     787
 9 sister   727
10 house    699
# ℹ 13,454 more rows
…
Step 2 — Extract only NRC “fear” words

get_sentiments("nrc") |>
  filter(sentiment == "fear") ->
nrcfear

Step 3 — Count fear words in Emma

tidy_books |>
  filter(book == "Emma") |>
  inner_join(nrcfear, by = "word", relationship = "many-to-many") |>
  count(word, sort = TRUE)

# A tibble: 364 × 2
   word         n
   <chr>    <int>
 1 doubt       98
 2 ill         72
 3 afraid      65
 4 marry       63
 5 change      61
 6 bad         60
 7 feeling     56
 8 bear        52
 9 creature    39
10 obliging    34
# ℹ 354 more rows
…
Example:

In Jane Austen novels, “miss” is a title, not a negative verb.

Step 1 — Count most common sentiment words

tidy_books |>
  inner_join(get_sentiments("bing"), by = "word",
             relationship = "many-to-many") |>
  count(word, sentiment, sort = TRUE) ->
bing_word_counts

bing_word_counts

# A tibble: 2,585 × 3
   word     sentiment     n
   <chr>    <chr>     <int>
 1 miss     negative   1855
 2 well     positive   1523
 3 good     positive   1380
 4 great    positive    981
 5 like     positive    725
 6 better   positive    639
 7 enough   positive    613
 8 happy    positive    534
 9 love     positive    495
10 pleasure positive    462
# ℹ 2,575 more rows
…
